[api-updater (non-obsolete-error-filter)] 22/01/2022 02:54:26 : Starting C:/Program Files/Unity/Hub/Editor/2020.3.22f1/Editor/Data/Tools/ScriptUpdater/APIUpdater.NonObsoleteApiUpdaterDetector.exe
[api-updater (non-obsolete-error-filter)] 
----------------------------------
jit/startup time      : 444.1302ms
moved types parse time: 46ms
candidates parse time : 1ms
C# parse time         : 226ms
candidates check time : 38ms
console write time    : 0ms

[api-updater (non-obsolete-error-filter)] 22/01/2022 15:27:29 : Starting C:/Program Files/Unity/Hub/Editor/2020.3.22f1/Editor/Data/Tools/ScriptUpdater/APIUpdater.NonObsoleteApiUpdaterDetector.exe
[api-updater (non-obsolete-error-filter)] 
----------------------------------
jit/startup time      : 221.2062ms
moved types parse time: 51ms
candidates parse time : 1ms
C# parse time         : 256ms
candidates check time : 53ms
console write time    : 0ms

[api-updater (non-obsolete-error-filter)] 22/01/2022 15:27:42 : Starting C:/Program Files/Unity/Hub/Editor/2020.3.22f1/Editor/Data/Tools/ScriptUpdater/APIUpdater.NonObsoleteApiUpdaterDetector.exe
[api-updater (non-obsolete-error-filter)] 
----------------------------------
jit/startup time      : 67.0619ms
moved types parse time: 41ms
candidates parse time : 1ms
C# parse time         : 177ms
candidates check time : 50ms
console write time    : 0ms

[api-updater (non-obsolete-error-filter)] 22/01/2022 15:27:55 : Starting C:/Program Files/Unity/Hub/Editor/2020.3.22f1/Editor/Data/Tools/ScriptUpdater/APIUpdater.NonObsoleteApiUpdaterDetector.exe
[api-updater (non-obsolete-error-filter)] 
----------------------------------
jit/startup time      : 68.0624ms
moved types parse time: 41ms
candidates parse time : 1ms
C# parse time         : 182ms
candidates check time : 39ms
console write time    : 0ms

[api-updater (non-obsolete-error-filter)] 22/01/2022 22:47:51 : Starting C:/Program Files/Unity/Hub/Editor/2020.3.22f1/Editor/Data/Tools/ScriptUpdater/APIUpdater.NonObsoleteApiUpdaterDetector.exe
[api-updater (non-obsolete-error-filter)] 
----------------------------------
jit/startup time      : 570.5183ms
moved types parse time: 43ms
candidates parse time : 1ms
C# parse time         : 214ms
candidates check time : 22ms
console write time    : 0ms

[api-updater (non-obsolete-error-filter)] 23/01/2022 02:38:57 : Starting C:/Program Files/Unity/Hub/Editor/2020.3.22f1/Editor/Data/Tools/ScriptUpdater/APIUpdater.NonObsoleteApiUpdaterDetector.exe
[api-updater (non-obsolete-error-filter)] 
----------------------------------
jit/startup time      : 472.4288ms
moved types parse time: 43ms
candidates parse time : 1ms
C# parse time         : 180ms
candidates check time : 23ms
console write time    : 0ms

[api-updater (non-obsolete-error-filter)] 23/01/2022 02:39:57 : Starting C:/Program Files/Unity/Hub/Editor/2020.3.22f1/Editor/Data/Tools/ScriptUpdater/APIUpdater.NonObsoleteApiUpdaterDetector.exe
[api-updater (non-obsolete-error-filter)] 
----------------------------------
jit/startup time      : 69.0654ms
moved types parse time: 44ms
candidates parse time : 1ms
C# parse time         : 168ms
candidates check time : 24ms
console write time    : 0ms

[api-updater (non-obsolete-error-filter)] 23/01/2022 02:47:52 : Starting C:/Program Files/Unity/Hub/Editor/2020.3.22f1/Editor/Data/Tools/ScriptUpdater/APIUpdater.NonObsoleteApiUpdaterDetector.exe
[api-updater (non-obsolete-error-filter)] 
----------------------------------
jit/startup time      : 91.0806ms
moved types parse time: 43ms
candidates parse time : 1ms
C# parse time         : 231ms
candidates check time : 39ms
console write time    : 0ms

[api-updater (non-obsolete-error-filter)] 23/01/2022 03:01:57 : Starting C:/Program Files/Unity/Hub/Editor/2020.3.22f1/Editor/Data/Tools/ScriptUpdater/APIUpdater.NonObsoleteApiUpdaterDetector.exe
[api-updater (non-obsolete-error-filter)] 
----------------------------------
jit/startup time      : 74.0684ms
moved types parse time: 42ms
candidates parse time : 1ms
C# parse time         : 178ms
candidates check time : 52ms
console write time    : 0ms

[api-updater (non-obsolete-error-filter)] 23/01/2022 03:02:08 : Starting C:/Program Files/Unity/Hub/Editor/2020.3.22f1/Editor/Data/Tools/ScriptUpdater/APIUpdater.NonObsoleteApiUpdaterDetector.exe
[api-updater (non-obsolete-error-filter)] 
----------------------------------
jit/startup time      : 66.06ms
moved types parse time: 44ms
candidates parse time : 1ms
C# parse time         : 180ms
candidates check time : 52ms
console write time    : 0ms

[api-updater (non-obsolete-error-filter)] 23/01/2022 03:02:17 : Starting C:/Program Files/Unity/Hub/Editor/2020.3.22f1/Editor/Data/Tools/ScriptUpdater/APIUpdater.NonObsoleteApiUpdaterDetector.exe
[api-updater (non-obsolete-error-filter)] 
----------------------------------
jit/startup time      : 65.0582ms
moved types parse time: 42ms
candidates parse time : 1ms
C# parse time         : 173ms
candidates check time : 41ms
console write time    : 0ms

[api-updater (non-obsolete-error-filter)] 23/01/2022 03:02:31 : Starting C:/Program Files/Unity/Hub/Editor/2020.3.22f1/Editor/Data/Tools/ScriptUpdater/APIUpdater.NonObsoleteApiUpdaterDetector.exe
[api-updater (non-obsolete-error-filter)] 
----------------------------------
jit/startup time      : 75.0685ms
moved types parse time: 41ms
candidates parse time : 1ms
C# parse time         : 175ms
candidates check time : 37ms
console write time    : 0ms

[api-updater (non-obsolete-error-filter)] 23/01/2022 03:02:46 : Starting C:/Program Files/Unity/Hub/Editor/2020.3.22f1/Editor/Data/Tools/ScriptUpdater/APIUpdater.NonObsoleteApiUpdaterDetector.exe
[api-updater (non-obsolete-error-filter)] 
----------------------------------
jit/startup time      : 74.0678ms
moved types parse time: 42ms
candidates parse time : 1ms
C# parse time         : 180ms
candidates check time : 37ms
console write time    : 0ms

[api-updater (non-obsolete-error-filter)] 23/01/2022 03:04:24 : Starting C:/Program Files/Unity/Hub/Editor/2020.3.22f1/Editor/Data/Tools/ScriptUpdater/APIUpdater.NonObsoleteApiUpdaterDetector.exe
[api-updater (non-obsolete-error-filter)] 
----------------------------------
jit/startup time      : 76.0682ms
moved types parse time: 42ms
candidates parse time : 1ms
C# parse time         : 180ms
candidates check time : 37ms
console write time    : 0ms

[api-updater (non-obsolete-error-filter)] 23/01/2022 03:37:20 : Starting C:/Program Files/Unity/Hub/Editor/2020.3.22f1/Editor/Data/Tools/ScriptUpdater/APIUpdater.NonObsoleteApiUpdaterDetector.exe
[api-updater (non-obsolete-error-filter)] 
----------------------------------
jit/startup time      : 79.0724ms
moved types parse time: 44ms
candidates parse time : 1ms
C# parse time         : 180ms
candidates check time : 35ms
console write time    : 0ms

[api-updater (non-obsolete-error-filter)] 23/01/2022 14:11:37 : Starting C:/Program Files/Unity/Hub/Editor/2020.3.22f1/Editor/Data/Tools/ScriptUpdater/APIUpdater.NonObsoleteApiUpdaterDetector.exe
[api-updater (non-obsolete-error-filter)] 
----------------------------------
jit/startup time      : 536.4859ms
moved types parse time: 44ms
candidates parse time : 1ms
C# parse time         : 256ms
candidates check time : 40ms
console write time    : 0ms

[api-updater (non-obsolete-error-filter)] 23/01/2022 14:11:52 : Starting C:/Program Files/Unity/Hub/Editor/2020.3.22f1/Editor/Data/Tools/ScriptUpdater/APIUpdater.NonObsoleteApiUpdaterDetector.exe
[api-updater (non-obsolete-error-filter)] 
----------------------------------
jit/startup time      : 63.0567ms
moved types parse time: 43ms
candidates parse time : 1ms
C# parse time         : 185ms
candidates check time : 40ms
console write time    : 0ms

[api-updater (non-obsolete-error-filter)] 23/01/2022 14:30:19 : Starting C:/Program Files/Unity/Hub/Editor/2020.3.22f1/Editor/Data/Tools/ScriptUpdater/APIUpdater.NonObsoleteApiUpdaterDetector.exe
[api-updater (non-obsolete-error-filter)] 
----------------------------------
jit/startup time      : 73.0649ms
moved types parse time: 42ms
candidates parse time : 1ms
C# parse time         : 174ms
candidates check time : 23ms
console write time    : 0ms

[api-updater (non-obsolete-error-filter)] 23/01/2022 14:43:32 : Starting C:/Program Files/Unity/Hub/Editor/2020.3.22f1/Editor/Data/Tools/ScriptUpdater/APIUpdater.NonObsoleteApiUpdaterDetector.exe
[api-updater (non-obsolete-error-filter)] 
----------------------------------
jit/startup time      : 78.071ms
moved types parse time: 42ms
candidates parse time : 1ms
C# parse time         : 180ms
candidates check time : 42ms
console write time    : 0ms

[api-updater (non-obsolete-error-filter)] 23/01/2022 14:51:19 : Starting C:/Program Files/Unity/Hub/Editor/2020.3.22f1/Editor/Data/Tools/ScriptUpdater/APIUpdater.NonObsoleteApiUpdaterDetector.exe
[api-updater (non-obsolete-error-filter)] 
----------------------------------
jit/startup time      : 68.0622ms
moved types parse time: 42ms
candidates parse time : 1ms
C# parse time         : 180ms
candidates check time : 43ms
console write time    : 0ms

[api-updater (non-obsolete-error-filter)] 23/01/2022 14:51:34 : Starting C:/Program Files/Unity/Hub/Editor/2020.3.22f1/Editor/Data/Tools/ScriptUpdater/APIUpdater.NonObsoleteApiUpdaterDetector.exe
[api-updater (non-obsolete-error-filter)] 
----------------------------------
jit/startup time      : 65.0594ms
moved types parse time: 45ms
candidates parse time : 1ms
C# parse time         : 182ms
candidates check time : 43ms
console write time    : 0ms

[api-updater (non-obsolete-error-filter)] 23/01/2022 14:51:43 : Starting C:/Program Files/Unity/Hub/Editor/2020.3.22f1/Editor/Data/Tools/ScriptUpdater/APIUpdater.NonObsoleteApiUpdaterDetector.exe
[api-updater (non-obsolete-error-filter)] 
----------------------------------
jit/startup time      : 65.0594ms
moved types parse time: 43ms
candidates parse time : 1ms
C# parse time         : 185ms
candidates check time : 45ms
console write time    : 0ms

[api-updater (non-obsolete-error-filter)] 23/01/2022 14:54:22 : Starting C:/Program Files/Unity/Hub/Editor/2020.3.22f1/Editor/Data/Tools/ScriptUpdater/APIUpdater.NonObsoleteApiUpdaterDetector.exe
[api-updater (non-obsolete-error-filter)] 
----------------------------------
jit/startup time      : 71.0645ms
moved types parse time: 43ms
candidates parse time : 1ms
C# parse time         : 161ms
candidates check time : 35ms
console write time    : 0ms

[api-updater (non-obsolete-error-filter)] 23/01/2022 14:54:46 : Starting C:/Program Files/Unity/Hub/Editor/2020.3.22f1/Editor/Data/Tools/ScriptUpdater/APIUpdater.NonObsoleteApiUpdaterDetector.exe
[api-updater (non-obsolete-error-filter)] 
----------------------------------
jit/startup time      : 66.0601ms
moved types parse time: 43ms
candidates parse time : 1ms
C# parse time         : 170ms
candidates check time : 34ms
console write time    : 0ms

[api-updater (non-obsolete-error-filter)] 23/01/2022 15:11:41 : Starting C:/Program Files/Unity/Hub/Editor/2020.3.22f1/Editor/Data/Tools/ScriptUpdater/APIUpdater.NonObsoleteApiUpdaterDetector.exe
[api-updater (non-obsolete-error-filter)] 
----------------------------------
jit/startup time      : 67.0607ms
moved types parse time: 44ms
candidates parse time : 2ms
C# parse time         : 179ms
candidates check time : 39ms
console write time    : 0ms

[api-updater (non-obsolete-error-filter)] 23/01/2022 15:12:01 : Starting C:/Program Files/Unity/Hub/Editor/2020.3.22f1/Editor/Data/Tools/ScriptUpdater/APIUpdater.NonObsoleteApiUpdaterDetector.exe
[api-updater (non-obsolete-error-filter)] 
----------------------------------
jit/startup time      : 65.0616ms
moved types parse time: 41ms
candidates parse time : 1ms
C# parse time         : 182ms
candidates check time : 38ms
console write time    : 0ms

[api-updater (non-obsolete-error-filter)] 24/01/2022 01:25:10 : Starting C:/Program Files/Unity/Hub/Editor/2020.3.22f1/Editor/Data/Tools/ScriptUpdater/APIUpdater.NonObsoleteApiUpdaterDetector.exe
[api-updater (non-obsolete-error-filter)] 
----------------------------------
jit/startup time      : 558.5085ms
moved types parse time: 42ms
candidates parse time : 1ms
C# parse time         : 159ms
candidates check time : 30ms
console write time    : 0ms

[api-updater (non-obsolete-error-filter)] 24/01/2022 01:38:24 : Starting C:/Program Files/Unity/Hub/Editor/2020.3.22f1/Editor/Data/Tools/ScriptUpdater/APIUpdater.NonObsoleteApiUpdaterDetector.exe
[api-updater (non-obsolete-error-filter)] 
----------------------------------
jit/startup time      : 79.0732ms
moved types parse time: 42ms
candidates parse time : 1ms
C# parse time         : 181ms
candidates check time : 28ms
console write time    : 0ms

[api-updater (non-obsolete-error-filter)] 24/01/2022 01:46:49 : Starting C:/Program Files/Unity/Hub/Editor/2020.3.22f1/Editor/Data/Tools/ScriptUpdater/APIUpdater.NonObsoleteApiUpdaterDetector.exe
[api-updater (non-obsolete-error-filter)] 
----------------------------------
jit/startup time      : 77.0698ms
moved types parse time: 42ms
candidates parse time : 1ms
C# parse time         : 164ms
candidates check time : 24ms
console write time    : 0ms

[api-updater (non-obsolete-error-filter)] 24/01/2022 02:01:04 : Starting C:/Program Files/Unity/Hub/Editor/2020.3.22f1/Editor/Data/Tools/ScriptUpdater/APIUpdater.NonObsoleteApiUpdaterDetector.exe
[api-updater (non-obsolete-error-filter)] 
----------------------------------
jit/startup time      : 73.0665ms
moved types parse time: 42ms
candidates parse time : 1ms
C# parse time         : 162ms
candidates check time : 44ms
console write time    : 0ms

[api-updater (non-obsolete-error-filter)] 26/01/2022 17:12:23 : Starting C:/Program Files/Unity/Hub/Editor/2020.3.22f1/Editor/Data/Tools/ScriptUpdater/APIUpdater.NonObsoleteApiUpdaterDetector.exe
[api-updater (non-obsolete-error-filter)] 
----------------------------------
jit/startup time      : 596.2107ms
moved types parse time: 46ms
candidates parse time : 1ms
C# parse time         : 229ms
candidates check time : 35ms
console write time    : 0ms

[api-updater (non-obsolete-error-filter)] 26/01/2022 17:12:27 : Starting C:/Program Files/Unity/Hub/Editor/2020.3.22f1/Editor/Data/Tools/ScriptUpdater/APIUpdater.NonObsoleteApiUpdaterDetector.exe
[api-updater (non-obsolete-error-filter)] 
----------------------------------
jit/startup time      : 66.1575ms
moved types parse time: 42ms
candidates parse time : 1ms
C# parse time         : 163ms
candidates check time : 33ms
console write time    : 0ms

[api-updater (non-obsolete-error-filter)] 26/01/2022 17:12:30 : Starting C:/Program Files/Unity/Hub/Editor/2020.3.22f1/Editor/Data/Tools/ScriptUpdater/APIUpdater.NonObsoleteApiUpdaterDetector.exe
[api-updater (non-obsolete-error-filter)] 
----------------------------------
jit/startup time      : 70.1422ms
moved types parse time: 44ms
candidates parse time : 1ms
C# parse time         : 160ms
candidates check time : 33ms
console write time    : 0ms

[api-updater (non-obsolete-error-filter)] 26/01/2022 17:13:02 : Starting C:/Program Files/Unity/Hub/Editor/2020.3.22f1/Editor/Data/Tools/ScriptUpdater/APIUpdater.NonObsoleteApiUpdaterDetector.exe
[api-updater (non-obsolete-error-filter)] 
----------------------------------
jit/startup time      : 71.0732ms
moved types parse time: 43ms
candidates parse time : 1ms
C# parse time         : 156ms
candidates check time : 24ms
console write time    : 0ms

[api-updater (non-obsolete-error-filter)] 26/01/2022 17:16:24 : Starting C:/Program Files/Unity/Hub/Editor/2020.3.22f1/Editor/Data/Tools/ScriptUpdater/APIUpdater.NonObsoleteApiUpdaterDetector.exe
[api-updater (non-obsolete-error-filter)] 
----------------------------------
jit/startup time      : 84.3239ms
moved types parse time: 45ms
candidates parse time : 1ms
C# parse time         : 173ms
candidates check time : 35ms
console write time    : 0ms

[api-updater (non-obsolete-error-filter)] 26/01/2022 17:20:03 : Starting C:/Program Files/Unity/Hub/Editor/2020.3.22f1/Editor/Data/Tools/ScriptUpdater/APIUpdater.NonObsoleteApiUpdaterDetector.exe
[api-updater (non-obsolete-error-filter)] 
----------------------------------
jit/startup time      : 72.8794ms
moved types parse time: 42ms
candidates parse time : 1ms
C# parse time         : 169ms
candidates check time : 28ms
console write time    : 0ms

[api-updater (non-obsolete-error-filter)] 26/01/2022 17:20:15 : Starting C:/Program Files/Unity/Hub/Editor/2020.3.22f1/Editor/Data/Tools/ScriptUpdater/APIUpdater.NonObsoleteApiUpdaterDetector.exe
[api-updater (non-obsolete-error-filter)] 
----------------------------------
jit/startup time      : 69.2184ms
moved types parse time: 43ms
candidates parse time : 1ms
C# parse time         : 169ms
candidates check time : 29ms
console write time    : 0ms

[api-updater (non-obsolete-error-filter)] 26/01/2022 17:22:50 : Starting C:/Program Files/Unity/Hub/Editor/2020.3.22f1/Editor/Data/Tools/ScriptUpdater/APIUpdater.NonObsoleteApiUpdaterDetector.exe
[api-updater (non-obsolete-error-filter)] 
----------------------------------
jit/startup time      : 67.0051ms
moved types parse time: 43ms
candidates parse time : 0ms
C# parse time         : 171ms
candidates check time : 25ms
console write time    : 0ms

[api-updater (non-obsolete-error-filter)] 26/01/2022 17:22:54 : Starting C:/Program Files/Unity/Hub/Editor/2020.3.22f1/Editor/Data/Tools/ScriptUpdater/APIUpdater.NonObsoleteApiUpdaterDetector.exe
[api-updater (non-obsolete-error-filter)] 
----------------------------------
jit/startup time      : 69.5979ms
moved types parse time: 51ms
candidates parse time : 1ms
C# parse time         : 177ms
candidates check time : 23ms
console write time    : 0ms

[api-updater (non-obsolete-error-filter)] 26/01/2022 17:22:55 : Starting C:/Program Files/Unity/Hub/Editor/2020.3.22f1/Editor/Data/Tools/ScriptUpdater/APIUpdater.NonObsoleteApiUpdaterDetector.exe
[api-updater (non-obsolete-error-filter)] 
----------------------------------
jit/startup time      : 66.2323ms
moved types parse time: 41ms
candidates parse time : 1ms
C# parse time         : 171ms
candidates check time : 26ms
console write time    : 0ms

[api-updater (non-obsolete-error-filter)] 26/01/2022 23:57:39 : Starting C:/Program Files/Unity/Hub/Editor/2020.3.22f1/Editor/Data/Tools/ScriptUpdater/APIUpdater.NonObsoleteApiUpdaterDetector.exe
[api-updater (non-obsolete-error-filter)] 
----------------------------------
jit/startup time      : 159.128ms
moved types parse time: 42ms
candidates parse time : 1ms
C# parse time         : 214ms
candidates check time : 25ms
console write time    : 0ms

[api-updater (non-obsolete-error-filter)] 26/01/2022 23:57:43 : Starting C:/Program Files/Unity/Hub/Editor/2020.3.22f1/Editor/Data/Tools/ScriptUpdater/APIUpdater.NonObsoleteApiUpdaterDetector.exe
[api-updater (non-obsolete-error-filter)] 
----------------------------------
jit/startup time      : 66.0538ms
moved types parse time: 41ms
candidates parse time : 1ms
C# parse time         : 176ms
candidates check time : 26ms
console write time    : 0ms

[api-updater (non-obsolete-error-filter)] 27/01/2022 00:09:45 : Starting C:/Program Files/Unity/Hub/Editor/2020.3.22f1/Editor/Data/Tools/ScriptUpdater/APIUpdater.NonObsoleteApiUpdaterDetector.exe
[api-updater (non-obsolete-error-filter)] 
----------------------------------
jit/startup time      : 72.0595ms
moved types parse time: 42ms
candidates parse time : 1ms
C# parse time         : 181ms
candidates check time : 30ms
console write time    : 0ms

[api-updater (non-obsolete-error-filter)] 27/01/2022 00:09:47 : Starting C:/Program Files/Unity/Hub/Editor/2020.3.22f1/Editor/Data/Tools/ScriptUpdater/APIUpdater.NonObsoleteApiUpdaterDetector.exe
[api-updater (non-obsolete-error-filter)] 
----------------------------------
jit/startup time      : 67.0573ms
moved types parse time: 42ms
candidates parse time : 1ms
C# parse time         : 178ms
candidates check time : 43ms
console write time    : 0ms

[api-updater (non-obsolete-error-filter)] 27/01/2022 00:12:05 : Starting C:/Program Files/Unity/Hub/Editor/2020.3.22f1/Editor/Data/Tools/ScriptUpdater/APIUpdater.NonObsoleteApiUpdaterDetector.exe
[api-updater (non-obsolete-error-filter)] 
----------------------------------
jit/startup time      : 66.0558ms
moved types parse time: 42ms
candidates parse time : 1ms
C# parse time         : 173ms
candidates check time : 26ms
console write time    : 0ms

[api-updater (non-obsolete-error-filter)] 27/01/2022 00:12:09 : Starting C:/Program Files/Unity/Hub/Editor/2020.3.22f1/Editor/Data/Tools/ScriptUpdater/APIUpdater.NonObsoleteApiUpdaterDetector.exe
[api-updater (non-obsolete-error-filter)] 
----------------------------------
jit/startup time      : 64.0528ms
moved types parse time: 43ms
candidates parse time : 1ms
C# parse time         : 185ms
candidates check time : 28ms
console write time    : 0ms

[api-updater (non-obsolete-error-filter)] 27/01/2022 00:32:43 : Starting C:/Program Files/Unity/Hub/Editor/2020.3.22f1/Editor/Data/Tools/ScriptUpdater/APIUpdater.NonObsoleteApiUpdaterDetector.exe
[api-updater (non-obsolete-error-filter)] 
----------------------------------
jit/startup time      : 66.0567ms
moved types parse time: 43ms
candidates parse time : 1ms
C# parse time         : 177ms
candidates check time : 27ms
console write time    : 0ms

[api-updater (non-obsolete-error-filter)] 27/01/2022 00:32:51 : Starting C:/Program Files/Unity/Hub/Editor/2020.3.22f1/Editor/Data/Tools/ScriptUpdater/APIUpdater.NonObsoleteApiUpdaterDetector.exe
[api-updater (non-obsolete-error-filter)] 
----------------------------------
jit/startup time      : 68.0567ms
moved types parse time: 42ms
candidates parse time : 1ms
C# parse time         : 185ms
candidates check time : 27ms
console write time    : 0ms

[api-updater (non-obsolete-error-filter)] 27/01/2022 03:20:01 : Starting C:/Program Files/Unity/Hub/Editor/2020.3.22f1/Editor/Data/Tools/ScriptUpdater/APIUpdater.NonObsoleteApiUpdaterDetector.exe
[api-updater (non-obsolete-error-filter)] 
----------------------------------
jit/startup time      : 74.0677ms
moved types parse time: 42ms
candidates parse time : 1ms
C# parse time         : 183ms
candidates check time : 31ms
console write time    : 0ms

[api-updater (non-obsolete-error-filter)] 27/01/2022 03:43:38 : Starting C:/Program Files/Unity/Hub/Editor/2020.3.22f1/Editor/Data/Tools/ScriptUpdater/APIUpdater.NonObsoleteApiUpdaterDetector.exe
[api-updater (non-obsolete-error-filter)] 
----------------------------------
jit/startup time      : 71.0636ms
moved types parse time: 42ms
candidates parse time : 0ms
C# parse time         : 176ms
candidates check time : 32ms
console write time    : 0ms

[api-updater (non-obsolete-error-filter)] 27/01/2022 03:43:58 : Starting C:/Program Files/Unity/Hub/Editor/2020.3.22f1/Editor/Data/Tools/ScriptUpdater/APIUpdater.NonObsoleteApiUpdaterDetector.exe
[api-updater (non-obsolete-error-filter)] 
----------------------------------
jit/startup time      : 63.5472ms
moved types parse time: 42ms
candidates parse time : 1ms
C# parse time         : 182ms
candidates check time : 31ms
console write time    : 0ms

[api-updater (non-obsolete-error-filter)] 27/01/2022 03:44:03 : Starting C:/Program Files/Unity/Hub/Editor/2020.3.22f1/Editor/Data/Tools/ScriptUpdater/APIUpdater.NonObsoleteApiUpdaterDetector.exe
[api-updater (non-obsolete-error-filter)] 
----------------------------------
jit/startup time      : 65.0595ms
moved types parse time: 42ms
candidates parse time : 1ms
C# parse time         : 179ms
candidates check time : 29ms
console write time    : 0ms

[api-updater (non-obsolete-error-filter)] 27/01/2022 03:44:45 : Starting C:/Program Files/Unity/Hub/Editor/2020.3.22f1/Editor/Data/Tools/ScriptUpdater/APIUpdater.NonObsoleteApiUpdaterDetector.exe
[api-updater (non-obsolete-error-filter)] 
----------------------------------
jit/startup time      : 65.059ms
moved types parse time: 42ms
candidates parse time : 1ms
C# parse time         : 193ms
candidates check time : 33ms
console write time    : 0ms

[api-updater (non-obsolete-error-filter)] 27/01/2022 03:44:55 : Starting C:/Program Files/Unity/Hub/Editor/2020.3.22f1/Editor/Data/Tools/ScriptUpdater/APIUpdater.NonObsoleteApiUpdaterDetector.exe
[api-updater (non-obsolete-error-filter)] 
----------------------------------
jit/startup time      : 62.0562ms
moved types parse time: 42ms
candidates parse time : 1ms
C# parse time         : 180ms
candidates check time : 27ms
console write time    : 0ms

[api-updater (non-obsolete-error-filter)] 27/01/2022 03:58:52 : Starting C:/Program Files/Unity/Hub/Editor/2020.3.22f1/Editor/Data/Tools/ScriptUpdater/APIUpdater.NonObsoleteApiUpdaterDetector.exe
[api-updater (non-obsolete-error-filter)] 
----------------------------------
jit/startup time      : 66.0607ms
moved types parse time: 43ms
candidates parse time : 1ms
C# parse time         : 172ms
candidates check time : 24ms
console write time    : 0ms

[api-updater (non-obsolete-error-filter)] 27/01/2022 04:13:08 : Starting C:/Program Files/Unity/Hub/Editor/2020.3.22f1/Editor/Data/Tools/ScriptUpdater/APIUpdater.NonObsoleteApiUpdaterDetector.exe
[api-updater (non-obsolete-error-filter)] 
----------------------------------
jit/startup time      : 65.06ms
moved types parse time: 43ms
candidates parse time : 1ms
C# parse time         : 186ms
candidates check time : 27ms
console write time    : 0ms

[api-updater (non-obsolete-error-filter)] 27/01/2022 04:41:18 : Starting C:/Program Files/Unity/Hub/Editor/2020.3.22f1/Editor/Data/Tools/ScriptUpdater/APIUpdater.NonObsoleteApiUpdaterDetector.exe
[api-updater (non-obsolete-error-filter)] 
----------------------------------
jit/startup time      : 75.0683ms
moved types parse time: 41ms
candidates parse time : 0ms
C# parse time         : 180ms
candidates check time : 45ms
console write time    : 0ms

[api-updater (non-obsolete-error-filter)] 27/01/2022 04:41:20 : Starting C:/Program Files/Unity/Hub/Editor/2020.3.22f1/Editor/Data/Tools/ScriptUpdater/APIUpdater.NonObsoleteApiUpdaterDetector.exe
[api-updater (non-obsolete-error-filter)] 
----------------------------------
jit/startup time      : 62.055ms
moved types parse time: 41ms
candidates parse time : 1ms
C# parse time         : 183ms
candidates check time : 41ms
console write time    : 0ms

[api-updater (non-obsolete-error-filter)] 27/01/2022 04:41:59 : Starting C:/Program Files/Unity/Hub/Editor/2020.3.22f1/Editor/Data/Tools/ScriptUpdater/APIUpdater.NonObsoleteApiUpdaterDetector.exe
[api-updater (non-obsolete-error-filter)] 
----------------------------------
jit/startup time      : 64.0576ms
moved types parse time: 42ms
candidates parse time : 1ms
C# parse time         : 190ms
candidates check time : 46ms
console write time    : 0ms

[api-updater (non-obsolete-error-filter)] 27/01/2022 23:28:31 : Starting C:/Program Files/Unity/Hub/Editor/2020.3.22f1/Editor/Data/Tools/ScriptUpdater/APIUpdater.NonObsoleteApiUpdaterDetector.exe
[api-updater (non-obsolete-error-filter)] 
----------------------------------
jit/startup time      : 620.5636ms
moved types parse time: 45ms
candidates parse time : 1ms
C# parse time         : 290ms
candidates check time : 48ms
console write time    : 0ms

[api-updater (non-obsolete-error-filter)] 27/01/2022 23:30:49 : Starting C:/Program Files/Unity/Hub/Editor/2020.3.22f1/Editor/Data/Tools/ScriptUpdater/APIUpdater.NonObsoleteApiUpdaterDetector.exe
[api-updater (non-obsolete-error-filter)] 
----------------------------------
jit/startup time      : 66.5996ms
moved types parse time: 43ms
candidates parse time : 1ms
C# parse time         : 182ms
candidates check time : 38ms
console write time    : 0ms

[api-updater (non-obsolete-error-filter)] 27/01/2022 23:35:05 : Starting C:/Program Files/Unity/Hub/Editor/2020.3.22f1/Editor/Data/Tools/ScriptUpdater/APIUpdater.NonObsoleteApiUpdaterDetector.exe
[api-updater (non-obsolete-error-filter)] 
----------------------------------
jit/startup time      : 68.0613ms
moved types parse time: 43ms
candidates parse time : 1ms
C# parse time         : 188ms
candidates check time : 47ms
console write time    : 0ms

[api-updater (non-obsolete-error-filter)] 27/01/2022 23:35:21 : Starting C:/Program Files/Unity/Hub/Editor/2020.3.22f1/Editor/Data/Tools/ScriptUpdater/APIUpdater.NonObsoleteApiUpdaterDetector.exe
[api-updater (non-obsolete-error-filter)] 
----------------------------------
jit/startup time      : 80.0718ms
moved types parse time: 43ms
candidates parse time : 1ms
C# parse time         : 188ms
candidates check time : 46ms
console write time    : 0ms

[api-updater (non-obsolete-error-filter)] 27/01/2022 23:35:30 : Starting C:/Program Files/Unity/Hub/Editor/2020.3.22f1/Editor/Data/Tools/ScriptUpdater/APIUpdater.NonObsoleteApiUpdaterDetector.exe
[api-updater (non-obsolete-error-filter)] 
----------------------------------
jit/startup time      : 65.0572ms
moved types parse time: 42ms
candidates parse time : 1ms
C# parse time         : 181ms
candidates check time : 43ms
console write time    : 0ms

[api-updater (non-obsolete-error-filter)] 27/01/2022 23:36:00 : Starting C:/Program Files/Unity/Hub/Editor/2020.3.22f1/Editor/Data/Tools/ScriptUpdater/APIUpdater.NonObsoleteApiUpdaterDetector.exe
[api-updater (non-obsolete-error-filter)] 
----------------------------------
jit/startup time      : 65.0596ms
moved types parse time: 43ms
candidates parse time : 1ms
C# parse time         : 188ms
candidates check time : 43ms
console write time    : 0ms

[api-updater (non-obsolete-error-filter)] 27/01/2022 23:36:04 : Starting C:/Program Files/Unity/Hub/Editor/2020.3.22f1/Editor/Data/Tools/ScriptUpdater/APIUpdater.NonObsoleteApiUpdaterDetector.exe
[api-updater (non-obsolete-error-filter)] 
----------------------------------
jit/startup time      : 68.0625ms
moved types parse time: 41ms
candidates parse time : 1ms
C# parse time         : 184ms
candidates check time : 41ms
console write time    : 0ms

[api-updater (non-obsolete-error-filter)] 27/01/2022 23:42:28 : Starting C:/Program Files/Unity/Hub/Editor/2020.3.22f1/Editor/Data/Tools/ScriptUpdater/APIUpdater.NonObsoleteApiUpdaterDetector.exe
[api-updater (non-obsolete-error-filter)] 
----------------------------------
jit/startup time      : 78.0732ms
moved types parse time: 47ms
candidates parse time : 1ms
C# parse time         : 181ms
candidates check time : 47ms
console write time    : 0ms

[api-updater (non-obsolete-error-filter)] 28/01/2022 00:48:00 : Starting C:/Program Files/Unity/Hub/Editor/2020.3.22f1/Editor/Data/Tools/ScriptUpdater/APIUpdater.NonObsoleteApiUpdaterDetector.exe
[api-updater (non-obsolete-error-filter)] 
----------------------------------
jit/startup time      : 74.0697ms
moved types parse time: 44ms
candidates parse time : 1ms
C# parse time         : 148ms
candidates check time : 21ms
console write time    : 0ms

[api-updater (non-obsolete-error-filter)] 28/01/2022 02:23:29 : Starting C:/Program Files/Unity/Hub/Editor/2020.3.22f1/Editor/Data/Tools/ScriptUpdater/APIUpdater.NonObsoleteApiUpdaterDetector.exe
[api-updater (non-obsolete-error-filter)] 
----------------------------------
jit/startup time      : 165.15ms
moved types parse time: 43ms
candidates parse time : 1ms
C# parse time         : 164ms
candidates check time : 26ms
console write time    : 0ms

[api-updater (non-obsolete-error-filter)] 28/01/2022 02:23:50 : Starting C:/Program Files/Unity/Hub/Editor/2020.3.22f1/Editor/Data/Tools/ScriptUpdater/APIUpdater.NonObsoleteApiUpdaterDetector.exe
[api-updater (non-obsolete-error-filter)] 
----------------------------------
jit/startup time      : 68.0613ms
moved types parse time: 48ms
candidates parse time : 1ms
C# parse time         : 165ms
candidates check time : 23ms
console write time    : 0ms

[api-updater (non-obsolete-error-filter)] 28/01/2022 02:23:56 : Starting C:/Program Files/Unity/Hub/Editor/2020.3.22f1/Editor/Data/Tools/ScriptUpdater/APIUpdater.NonObsoleteApiUpdaterDetector.exe
[api-updater (non-obsolete-error-filter)] 
----------------------------------
jit/startup time      : 66.0603ms
moved types parse time: 42ms
candidates parse time : 1ms
C# parse time         : 158ms
candidates check time : 22ms
console write time    : 0ms

[api-updater (non-obsolete-error-filter)] 31/01/2022 20:52:44 : Starting C:/Program Files/Unity/Hub/Editor/2020.3.22f1/Editor/Data/Tools/ScriptUpdater/APIUpdater.NonObsoleteApiUpdaterDetector.exe
[api-updater (non-obsolete-error-filter)] 
----------------------------------
jit/startup time      : 559.5091ms
moved types parse time: 45ms
candidates parse time : 1ms
C# parse time         : 220ms
candidates check time : 28ms
console write time    : 0ms

[api-updater (non-obsolete-error-filter)] 01/02/2022 03:27:05 : Starting C:/Program Files/Unity/Hub/Editor/2020.3.22f1/Editor/Data/Tools/ScriptUpdater/APIUpdater.NonObsoleteApiUpdaterDetector.exe
[api-updater (non-obsolete-error-filter)] 
----------------------------------
jit/startup time      : 631.6848ms
moved types parse time: 47ms
candidates parse time : 1ms
C# parse time         : 274ms
candidates check time : 36ms
console write time    : 0ms

[api-updater (non-obsolete-error-filter)] 01/02/2022 04:02:36 : Starting C:/Program Files/Unity/Hub/Editor/2020.3.22f1/Editor/Data/Tools/ScriptUpdater/APIUpdater.NonObsoleteApiUpdaterDetector.exe
[api-updater (non-obsolete-error-filter)] 
----------------------------------
jit/startup time      : 73.0657ms
moved types parse time: 47ms
candidates parse time : 1ms
C# parse time         : 193ms
candidates check time : 28ms
console write time    : 0ms

[api-updater (non-obsolete-error-filter)] 01/02/2022 04:02:46 : Starting C:/Program Files/Unity/Hub/Editor/2020.3.22f1/Editor/Data/Tools/ScriptUpdater/APIUpdater.NonObsoleteApiUpdaterDetector.exe
[api-updater (non-obsolete-error-filter)] 
----------------------------------
jit/startup time      : 65.0595ms
moved types parse time: 42ms
candidates parse time : 1ms
C# parse time         : 183ms
candidates check time : 28ms
console write time    : 0ms

